! input conditions from Alessandra Lombardi/Giulia Bellodi

BETX0 :=  5.5270; ![m/rad]
ALFX0 :=  1.7357;
MUX0  :=  0.0;  !phase function [rad]
BETY0 :=  11.0314; ![m/rad]
ALFY0 :=  -3.0024;
MUY0  :=  0.0;  !phase function [rad]
X0    :=  0.0;
PX0   :=  0.0;
Y0    :=  0.0;
PY0   :=  0.0;
T0    :=  0.0; !longitudinal displacement
PT0   :=  0.0; !longitudinal transverse momentum
DX0   :=  0.0; !Dispersion of x
DPX0  :=  0.0; !Dispersion of px
DY0   :=  0.0; !Dispersion of y
DPY0  :=  0.0; !Dispersion of py

return;
